{
    "name": "Procurex National",
    "date": "22 April 2020",
    "venue": "NEC Birmingham",
    "email": "exhibitions@procurexnational.co.uk",
    "phone": "0845 270 7066",
    "tagline": "The UK’s Leading Public Sector Procurement Event"
}